<?xml version="1.0" encoding="utf-8"?>
<!-- Generator: Adobe Illustrator 22.0.1, SVG Export Plug-In . SVG Version: 6.00 Build 0)  -->
<svg version="1.1" id="Layer_1" xmlns="http://www.w3.org/2000/svg" xmlns:xlink="http://www.w3.org/1999/xlink" x="0px" y="0px"
	 viewBox="0 0 145.9 8.8" style="enable-background:new 0 0 145.9 8.8;" xml:space="preserve">
<style type="text/css">
	.st0{enable-background:new    ;}
	.st1{fill:#F8F2D7;}
</style>
<g class="st0">
	<path class="st1" d="M3.6,1.2H0.9v2.4h2.7v0.8H0.9v4H0v-8h3.6V1.2z"/>
	<path class="st1" d="M10.8,4.4c0-2.4,1.9-4.1,4.2-4.1s4.2,1.8,4.2,4.1c0,2.4-1.8,4.1-4.2,4.1C12.6,8.6,10.8,6.8,10.8,4.4z
		 M11.7,4.4c0,1.8,1.5,3.3,3.2,3.3c1.8,0,3.3-1.5,3.3-3.3s-1.5-3.3-3.3-3.3C13.1,1.1,11.7,2.6,11.7,4.4z"/>
	<path class="st1" d="M27.6,0.4v7.2h2.2v0.8h-3.1v-8H27.6z"/>
	<path class="st1" d="M37.9,0.4v7.2h2.2v0.8H37v-8H37.9z"/>
	<path class="st1" d="M46.5,4.4c0-2.4,1.9-4.1,4.2-4.1s4.2,1.8,4.2,4.1c0,2.4-1.8,4.1-4.2,4.1C48.3,8.6,46.5,6.8,46.5,4.4z
		 M47.4,4.4c0,1.8,1.5,3.3,3.2,3.3c1.8,0,3.3-1.5,3.3-3.3s-1.5-3.3-3.3-3.3C48.9,1.1,47.4,2.6,47.4,4.4z"/>
	<path class="st1" d="M62.2,0.4l2.1,6L66.9,0l2.4,6.4l2.3-6h1l-3.4,8.4l-2.4-6.4l-2.5,6.4l-3.1-8.4H62.2z"/>
	<path class="st1" d="M89.4,5.3c0,0.7,0,1.4,0.6,1.9c0.3,0.3,0.9,0.5,1.3,0.5c0.4,0,1-0.2,1.3-0.5c0.6-0.5,0.6-1.3,0.6-1.9V0.4h0.9
		v5.1c0,0.7-0.1,1.3-0.5,1.9c-0.5,0.7-1.3,1.1-2.3,1.1S89.5,8.1,89,7.5c-0.4-0.6-0.5-1.2-0.5-1.9V0.4h0.9V5.3z"/>
	<path class="st1" d="M105.8,2c-0.1-0.2-0.3-0.5-0.5-0.6c-0.2-0.1-0.4-0.3-0.9-0.3c-0.8,0-1.3,0.5-1.3,1.2c0,0.3,0.1,0.5,0.3,0.7
		c0.2,0.2,0.5,0.4,0.8,0.5l0.8,0.3c0.5,0.2,0.9,0.4,1.2,0.8c0.4,0.4,0.6,0.9,0.6,1.5c0,1.5-1.1,2.5-2.5,2.5c-0.5,0-1.2-0.1-1.7-0.6
		c-0.4-0.4-0.6-0.9-0.7-1.4l0.9-0.2c0.1,0.4,0.3,0.8,0.5,1c0.3,0.3,0.7,0.4,1.2,0.4c1.1,0,1.6-0.8,1.6-1.6c0-0.4-0.1-0.7-0.4-0.9
		c-0.2-0.2-0.5-0.4-1-0.6l-0.7-0.3c-0.3-0.1-0.7-0.3-1.1-0.7c-0.3-0.3-0.6-0.7-0.6-1.3c0-1.2,0.9-2.1,2.2-2.1c0.5,0,0.9,0.1,1.3,0.4
		c0.3,0.2,0.6,0.5,0.8,0.9L105.8,2z"/>
	<path class="st1" d="M122.8,4.4c0-2.4,1.9-4.1,4.2-4.1s4.2,1.8,4.2,4.1c0,2.4-1.8,4.1-4.2,4.1C124.7,8.6,122.8,6.8,122.8,4.4z
		 M123.7,4.4c0,1.8,1.5,3.3,3.2,3.3c1.8,0,3.3-1.5,3.3-3.3s-1.5-3.3-3.3-3.3C125.2,1.1,123.7,2.6,123.7,4.4z"/>
	<path class="st1" d="M138.8,8.4V0.1l6.2,6.5V0.4h0.9v8.4l-6.2-6.5v6.2H138.8z"/>
</g>
</svg>
